﻿master_code_in;master_name_in;descriptionCZ_in;descriptionEN_in
LINS;Life Insurance;Skupina produktů životního pojištění;Life insurance product group
INV;Investment;Investiční produkty;Investment product
GINS;General Insurance;Skupina produktů neživotního pojištění;General insurance product group
INS;Insurance;Pojištění;Basic insurance product
