﻿master_code_in;master_name_in;descriptionCZ_in;descriptionEN_in
REP;Representative;Vztah subjektu: reprezentant;Party to party relation role: Representative
MOT;Mother;Vztah subjektu: matka;Party to party relation role: Mother
FAT;Father;Vztah subjektu: otec;Party to party relation role: Father
DAU;Daughter;Vztah subjektu: dcera;Party to party relation role: Daughter
SON;Son;Vztah subjektu: syn;Party to party relation role: Son
FAMILY;Family;Vztah subjektu: rodina;Party to party relation role: Family
OWN;Owned;Vztah subjektu: Vlastnena spolecnost;Party to party relation role: Owned company
SHARE;Shares;Vztah subjektu: Podil ve spolecnosti;Party to party relation role: Owned shares in company
SIS;Sister company;Vztah subjektu: Sesterska spolecnost;Party to party relation role: Sister company
DC;Daughter company;Vztah subjektu: Dcerinna spolecnost;Party to party relation role: Daughter company
