{
  "realm": "ataccamaone",
  "resource": "one-nme-server",
  "auth-server-url": "http://localhost:8083/auth",
  "ssl-required": "external",
  "enable-basic-auth": true,
  "credentials": {
    "secret": "one-nme-server-s3cret"
  },
  "principal-attribute": "preferred_username"
}