{
  "realm": "ataccamaone",
  "auth-server-url": "http://localhost:8083/auth",
  "ssl-required": "external",
  "resource": "one-admin-center",
  "use-resource-role-mappings": false,
  "public-client": false,
  "bearer-only": false,
  "autodetect-bearer-only": false,
  "always-refresh-token": false,
  "credentials": {
    "secret": "one-admin-center-s3cret"
  },
  "principal-attribute": "preferred_username"
}
